laboratorio/DS0001A.CSV

Format,1.0B,
Memory Length,10000,
IntpDistance,0,
Trigger Address,4999,
Trigger Level,-8.000E-02,
Source,CH1,
Vertical Units,V,
Vertical Units Div,0,
Vertical Units Extend Div,16,
Label, ,
Probe Type,0,
Probe Ratio,1.000E+00,
Vertical Scale,1.000E+00,
Vertical Position,1.200E-01,
Horizontal Units,S,
Horizontal Scale,2.000E-02,
Horizontal Position,0.000E+00,
Horizontal Mode,Main,
SincET Mode,Real Time,
Sampling Period,2.000E-05,
Horizontal Old Scale,2.000E-02,
Horizontal Old Position,0.000E+00,
Firmware,V1.23,
Mode,Detail,
Waveform Data,
-9.999999e-02,-3.60e-01,
-9.997999e-02,-3.20e-01,
-9.995999e-02,-3.20e-01,
-9.993999e-02,-3.20e-01,
-9.991999e-02,-3.20e-01,
-9.989999e-02,-3.20e-01,
-9.987999e-02,-3.20e-01,
-9.985999e-02,-3.20e-01,
-9.983999e-02,-3.20e-01,
-9.981999e-02,-3.20e-01,
-9.979999e-02,-3.20e-01,
-9.977999e-02,-3.20e-01,
-9.975999e-02,-3.20e-01,
-9.973999e-02,-3.20e-01,
-9.971999e-02,-2.80e-01,
-9.969999e-02,-2.80e-01,
-9.967999e-02,-2.80e-01,
-9.965999e-02,-2.80e-01,
-9.963999e-02,-2.80e-01,
-9.961999e-02,-2.80e-01,
-9.959999e-02,-2.80e-01,
-9.957999e-02,-2.80e-01,
-9.955999e-02,-2.80e-01,
-9.953999e-02,-2.80e-01,
-9.951999e-02,-2.80e-01,
-9.949999e-02,-2.80e-01,
-9.947999e-02,-2.80e-01,
-9.945999e-02,-2.80e-01,
-9.943999e-02,-2.80e-01,
-9.941999e-02,-2.40e-01,
-9.939999e-02,-2.80e-01,
-9.937999e-02,-2.80e-01,
-9.935999e-02,-2.40e-01,
-9.933999e-02,-2.40e-01,
-9.931999e-02,-2.40e-01,
-9.929999e-02,-2.40e-01,
-9.927999e-02,-2.40e-01,
-9.925999e-02,-2.40e-01,
-9.923999e-02,-2.40e-01,
-9.921999e-02,-2.40e-01,
-9.919999e-02,-2.40e-01,
-9.917999e-02,-2.40e-01,
-9.915999e-02,-2.40e-01,
-9.913999e-02,-2.40e-01,
-9.911999e-02,-2.40e-01,
-9.909999e-02,-2.40e-01,
-9.907999e-02,-2.40e-01,
-9.905999e-02,-2.40e-01,
-9.903999e-02,-1.60e-01,
-9.901999e-02,-1.60e-01,
-9.899999e-02,-2.40e-01,
-9.897999e-02,-2.40e-01,
-9.895999e-02,-2.40e-01,
-9.893999e-02,-1.60e-01,
-9.891999e-02,-1.60e-01,
-9.889999e-02,-1.60e-01,
-9.887999e-02,-1.60e-01,
-9.885999e-02,-1.60e-01,
-9.883999e-02,-1.60e-01,
-9.881999e-02,-2.40e-01,
-9.879999e-02,-1.60e-01,
-9.877999e-02,-1.60e-01,
-9.875999e-02,-1.60e-01,
-9.873999e-02,-1.60e-01,
-9.871999e-02,-1.60e-01,
-9.869999e-02,-1.60e-01,
-9.867999e-02,-1.60e-01,
-9.865999e-02,-1.60e-01,
-9.863999e-02,-1.60e-01,
-9.861999e-02,-1.60e-01,
-9.859999e-02,-1.60e-01,
-9.857999e-02,-1.60e-01,
-9.855999e-02,-1.60e-01,
-9.853999e-02,-1.60e-01,
-9.851999e-02,-1.20e-01,
-9.849999e-02,-1.60e-01,
-9.847999e-02,-1.60e-01,
-9.845999e-02,-1.20e-01,
-9.843999e-02,-1.20e-01,
-9.841999e-02,-1.60e-01,
-9.839999e-02,-1.20e-01,
-9.837999e-02,-1.20e-01,
-9.835999e-02,-1.60e-01,
-9.833999e-02,-1.20e-01,
-9.831999e-02,-1.20e-01,
-9.829999e-02,-1.20e-01,
-9.827999e-02,-1.20e-01,
-9.825999e-02,-1.20e-01,
-9.823999e-02,-1.20e-01,
-9.821999e-02,-1.20e-01,
-9.819999e-02,-1.20e-01,
-9.817999e-02,-1.20e-01,
-9.815999e-02,-1.20e-01,
-9.813999e-02,-1.20e-01,
-9.811999e-02,-1.20e-01,
-9.809999e-02,-1.20e-01,
-9.807999e-02,-1.20e-01,
-9.805999e-02,-1.20e-01,
-9.803999e-02,-1.20e-01,
-9.801999e-02,-1.20e-01,
-9.799999e-02,-1.20e-01,
-9.797999e-02,-1.20e-01,
-9.795999e-02,-1.20e-01,
-9.793999e-02,-1.20e-01,
-9.791999e-02,-1.20e-01,
-9.789999e-02,-1.20e-01,
-9.787999e-02,-1.20e-01,
-9.785999e-02,-1.20e-01,
-9.783999e-02,-1.20e-01,
-9.781999e-02,-1.20e-01,
-9.779999e-02,-1.20e-01,
-9.777999e-02,-1.20e-01,
-9.775999e-02,-8.00e-02,
-9.773999e-02,-1.20e-01,
-9.771999e-02,-8.00e-02,
-9.769999e-02,-1.20e-01,
-9.767999e-02,-1.20e-01,
-9.765999e-02,-1.20e-01,
-9.763999e-02,-8.00e-02,
-9.761999e-02,-1.20e-01,
-9.759999e-02,-1.20e-01,
-9.757999e-02,-8.00e-02,
-9.755999e-02,-8.00e-02,
-9.753999e-02,-8.00e-02,
-9.751999e-02,-8.00e-02,
-9.749999e-02,-8.00e-02,
-9.747999e-02,-1.20e-01,
-9.745999e-02,-8.00e-02,
-9.743999e-02,-8.00e-02,
-9.741999e-02,-8.00e-02,
-9.739999e-02,-8.00e-02,
-9.737999e-02,-1.20e-01,
-9.735999e-02,-8.00e-02,
-9.733999e-02,-8.00e-02,
-9.731999e-02,-8.00e-02,
-9.729999e-02,-8.00e-02,
-9.727999e-02,-8.00e-02,
-9.725999e-02,-8.00e-02,
-9.723999e-02,-8.00e-02,
-9.721999e-02,-8.00e-02,
-9.719999e-02,-8.00e-02,
-9.717999e-02,-8.00e-02,
-9.715999e-02,-8.00e-02,
-9.713999e-02,-8.00e-02,
-9.711999e-02,-8.00e-02,
-9.709999e-02,-8.00e-02,
-9.707999e-02,-8.00e-02,
-9.705999e-02,-8.00e-02,
-9.703999e-02,-8.00e-02,
-9.701999e-02,-8.00e-02,
-9.699999e-02,-8.00e-02,
-9.697999e-02,-8.00e-02,
-9.695999e-02,-8.00e-02,
-9.693999e-02,-8.00e-02,
-9.691999e-02,-8.00e-02,
-9.689999e-02,-8.00e-02,
-9.687999e-02,-8.00e-02,
-9.685999e-02,-8.00e-02,
-9.683999e-02,-8.00e-02,
-9.681999e-02,-8.00e-02,
-9.679999e-02,-8.00e-02,
-9.677999e-02,-8.00e-02,
-9.675999e-02,-8.00e-02,
-9.673999e-02,-8.00e-02,
-9.671999e-02,-8.00e-02,
-9.669999e-02,-8.00e-02,
-9.667999e-02,-8.00e-02,
-9.665999e-02,-8.00e-02,
-9.663999e-02,-8.00e-02,
-9.661999e-02,-8.00e-02,
-9.659999e-02,-8.00e-02,
-9.657999e-02,-8.00e-02,
-9.655999e-02,-8.00e-02,
-9.653999e-02,-8.00e-02,
-9.651999e-02,-8.00e-02,
-9.649999e-02,-8.00e-02,
-9.647999e-02,-8.00e-02,
-9.645999e-02,-8.00e-02,
-9.643999e-02,-8.00e-02,
-9.641999e-02,-8.00e-02,
-9.639999e-02,-8.00e-02,
-9.637999e-02,-8.00e-02,
-9.635999e-02,-8.00e-02,
-9.633999e-02,-8.00e-02,
-9.631999e-02,-8.00e-02,
-9.629999e-02,0.00e+00,
-9.627999e-02,-8.00e-02,
-9.625999e-02,0.00e+00,
-9.623999e-02,-8.00e-02,
-9.621999e-02,-8.00e-02,
-9.619999e-02,-8.00e-02,
-9.617999e-02,-8.00e-02,
-9.615999e-02,-8.00e-02,
-9.613999e-02,0.00e+00,
-9.611999e-02,0.00e+00,
-9.609999e-02,-8.00e-02,
-9.607999e-02,-8.00e-02,
-9.605999e-02,-8.00e-02,
-9.603999e-02,0.00e+00,
-9.601999e-02,0.00e+00,
-9.599999e-02,0.00e+00,
-9.597999e-02,-8.00e-02,
-9.595999e-02,-8.00e-02,
-9.593999e-02,-8.00e-02,
-9.591999e-02,0.00e+00,
-9.589999e-02,0.00e+00,
-9.587999e-02,0.00e+00,
-9.585999e-02,0.00e+00,
-9.583999e-02,0.00e+00,
-9.581999e-02,-8.00e-02,
-9.579999e-02,-8.00e-02,
-9.577999e-02,0.00e+00,
-9.575999e-02,0.00e+00,
-9.573999e-02,0.00e+00,
-9.571999e-02,-8.00e-02,
-9.569999e-02,-8.00e-02,
-9.567999e-02,0.00e+00,
-9.565999e-02,0.00e+00,
-9.563999e-02,0.00e+00,
-9.561999e-02,0.00e+00,
-9.559999e-02,0.00e+00,
-9.557999e-02,0.00e+00,
-9.555999e-02,-8.00e-02,
-9.553999e-02,-8.00e-02,
-9.551999e-02,0.00e+00,
-9.549999e-02,0.00e+00,
-9.547999e-02,0.00e+00,
-9.545999e-02,0.00e+00,
-9.543999e-02,0.00e+00,
-9.541999e-02,0.00e+00,
-9.539999e-02,0.00e+00,
-9.537999e-02,0.00e+00,
-9.535999e-02,-8.00e-02,
-9.533999e-02,0.00e+00,
-9.531999e-02,0.00e+00,
-9.529999e-02,0.00e+00,
-9.527999e-02,0.00e+00,
-9.525999e-02,0.00e+00,
-9.523999e-02,0.00e+00,
-9.521999e-02,-8.00e-02,
-9.519999e-02,0.00e+00,
-9.517999e-02,0.00e+00,
-9.515999e-02,0.00e+00,
-9.513999e-02,0.00e+00,
-9.511999e-02,0.00e+00,
-9.509999e-02,0.00e+00,
-9.507999e-02,-8.00e-02,
-9.505999e-02,0.00e+00,
-9.503999e-02,0.00e+00,
-9.501999e-02,0.00e+00,
-9.499999e-02,0.00e+00,
-9.497999e-02,0.00e+00,
-9.495999e-02,0.00e+00,
-9.493999e-02,0.00e+00,
-9.491999e-02,0.00e+00,
-9.489999e-02,0.00e+00,
-9.487999e-02,0.00e+00,
-9.485999e-02,0.00e+00,
-9.483999e-02,0.00e+00,
-9.481999e-02,0.00e+00,
-9.479999e-02,0.00e+00,
-9.477999e-02,0.00e+00,
-9.475999e-02,0.00e+00,
-9.473999e-02,0.00e+00,
-9.471999e-02,0.00e+00,
-9.469999e-02,0.00e+00,
-9.467999e-02,0.00e+00,
-9.465999e-02,0.00e+00,
-9.463999e-02,0.00e+00,
-9.461999e-02,0.00e+00,
-9.459999e-02,0.00e+00,
-9.457999e-02,0.00e+00,
-9.455999e-02,0.00e+00,
-9.453999e-02,0.00e+00,
-9.451999e-02,0.00e+00,
-9.449999e-02,0.00e+00,
-9.447999e-02,0.00e+00,
-9.445999e-02,0.00e+00,
-9.443999e-02,0.00e+00,
-9.441999e-02,0.00e+00,
-9.439999e-02,0.00e+00,
-9.437999e-02,0.00e+00,
-9.435999e-02,0.00e+00,
-9.433999e-02,0.00e+00,
-9.431999e-02,0.00e+00,
-9.429999e-02,0.00e+00,
-9.427999e-02,0.00e+00,
-9.425999e-02,0.00e+00,
-9.423999e-02,0.00e+00,
-9.421999e-02,0.00e+00,
-9.419999e-02,0.00e+00,
-9.417999e-02,0.00e+00,
-9.415999e-02,0.00e+00,
-9.413999e-02,0.00e+00,
-9.411999e-02,0.00e+00,
-9.409999e-02,0.00e+00,
-9.407999e-02,0.00e+00,
-9.405999e-02,0.00e+00,
-9.403999e-02,0.00e+00,
-9.401999e-02,0.00e+00,
-9.399999e-02,0.00e+00,
-9.397999e-02,0.00e+00,
-9.395999e-02,0.00e+00,
-9.393999e-02,0.00e+00,
-9.391999e-02,0.00e+00,
-9.389999e-02,0.00e+00,
-9.387999e-02,0.00e+00,
-9.385999e-02,0.00e+00,
-9.383999e-02,0.00e+00,
-9.381999e-02,0.00e+00,
-9.379999e-02,0.00e+00,
-9.377999e-02,0.00e+00,
-9.375999e-02,0.00e+00,
-9.373999e-02,0.00e+00,
-9.371999e-02,0.00e+00,
-9.369999e-02,0.00e+00,
-9.367999e-02,0.00e+00,
-9.365999e-02,0.00e+00,
-9.363999e-02,0.00e+00,
-9.361999e-02,0.00e+00,
-9.359999e-02,0.00e+00,
-9.357999e-02,0.00e+00,
-9.355999e-02,0.00e+00,
-9.353999e-02,0.00e+00,
-9.351999e-02,0.00e+00,
-9.349999e-02,0.00e+00,
-9.347999e-02,0.00e+00,
-9.345999e-02,0.00e+00,
-9.343999e-02,0.00e+00,
-9.341999e-02,0.00e+00,
-9.339999e-02,0.00e+00,
-9.337999e-02,0.00e+00,
-9.335999e-02,0.00e+00,
-9.333999e-02,0.00e+00,
-9.331999e-02,0.00e+00,
-9.329999e-02,0.00e+00,
-9.327999e-02,0.00e+00,
-9.325999e-02,0.00e+00,
-9.323999e-02,0.00e+00,
-9.321999e-02,0.00e+00,
-9.319999e-02,0.00e+00,
-9.317999e-02,0.00e+00,
-9.315999e-02,0.00e+00,
-9.313999e-02,0.00e+00,
-9.311999e-02,0.00e+00,
-9.309999e-02,0.00e+00,
-9.307999e-02,0.00e+00,
-9.305999e-02,0.00e+00,
-9.303999e-02,0.00e+00,
-9.301999e-02,0.00e+00,
-9.299999e-02,0.00e+00,
-9.297999e-02,0.00e+00,
-9.295999e-02,0.00e+00,
-9.293999e-02,0.00e+00,
-9.291999e-02,0.00e+00,
-9.289999e-02,0.00e+00,
-9.287999e-02,0.00e+00,
-9.285999e-02,0.00e+00,
-9.283999e-02,0.00e+00,
-9.281999e-02,0.00e+00,
-9.279999e-02,0.00e+00,
-9.277999e-02,0.00e+00,
-9.275999e-02,0.00e+00,
-9.273999e-02,0.00e+00,
-9.271999e-02,0.00e+00,
-9.269999e-02,0.00e+00,
-9.267999e-02,0.00e+00,
-9.265999e-02,0.00e+00,
-9.263999e-02,0.00e+00,
-9.261999e-02,0.00e+00,
-9.259999e-02,0.00e+00,
-9.257999e-02,0.00e+00,
-9.255999e-02,0.00e+00,
-9.253999e-02,0.00e+00,
-9.251999e-02,0.00e+00,
-9.249999e-02,0.00e+00,
-9.247999e-02,0.00e+00,
-9.245999e-02,0.00e+00,
-9.243999e-02,0.00e+00,
-9.241999e-02,0.00e+00,
-9.239999e-02,0.00e+00,
-9.237999e-02,0.00e+00,
-9.235999e-02,0.00e+00,
-9.233999e-02,0.00e+00,
-9.231999e-02,0.00e+00,
-9.229999e-02,0.00e+00,
-9.227999e-02,0.00e+00,
-9.225999e-02,0.00e+00,
-9.223999e-02,0.00e+00,
-9.221999e-02,0.00e+00,
-9.219999e-02,0.00e+00,
-9.217999e-02,0.00e+00,
-9.215999e-02,0.00e+00,
-9.213999e-02,0.00e+00,
-9.211999e-02,0.00e+00,
-9.209999e-02,0.00e+00,
-9.207999e-02,0.00e+00,
-9.205999e-02,0.00e+00,
-9.203999e-02,0.00e+00,
-9.201999e-02,0.00e+00,
-9.199999e-02,0.00e+00,
-9.197999e-02,0.00e+00,
-9.195999e-02,0.00e+00,
-9.193999e-02,0.00e+00,
-9.191999e-02,0.00e+00,
-9.189999e-02,0.00e+00,
-9.187999e-02,0.00e+00,
-9.185999e-02,0.00e+00,
-9.183999e-02,0.00e+00,
-9.181999e-02,0.00e+00,
-9.179999e-02,0.00e+00,
-9.177999e-02,0.00e+00,
-9.175999e-02,0.00e+00,
-9.173999e-02,0.00e+00,
-9.171999e-02,0.00e+00,
-9.169999e-02,0.00e+00,
-9.167999e-02,0.00e+00,
-9.165999e-02,0.00e+00,
-9.163999e-02,0.00e+00,
-9.161999e-02,0.00e+00,
-9.159999e-02,0.00e+00,
-9.157999e-02,0.00e+00,
-9.155999e-02,0.00e+00,
-9.153999e-02,0.00e+00,
-9.151999e-02,0.00e+00,
-9.149999e-02,0.00e+00,
-9.147999e-02,0.00e+00,
-9.145999e-02,0.00e+00,
-9.143999e-02,0.00e+00,
-9.141999e-02,0.00e+00,
-9.139999e-02,0.00e+00,
-9.137999e-02,0.00e+00,
-9.135999e-02,0.00e+00,
-9.133999e-02,0.00e+00,
-9.131999e-02,0.00e+00,
-9.129999e-02,0.00e+00,
-9.127999e-02,0.00e+00,
-9.125999e-02,0.00e+00,
-9.123999e-02,0.00e+00,
-9.121999e-02,0.00e+00,
-9.119999e-02,0.00e+00,
-9.117999e-02,0.00e+00,
-9.115999e-02,0.00e+00,
-9.113999e-02,0.00e+00,
-9.111999e-02,0.00e+00,
-9.109999e-02,0.00e+00,
-9.107999e-02,0.00e+00,
-9.105999e-02,0.00e+00,
-9.103999e-02,0.00e+00,
-9.101999e-02,0.00e+00,
-9.099999e-02,0.00e+00,
-9.097999e-02,0.00e+00,
-9.095999e-02,0.00e+00,
-9.093999e-02,0.00e+00,
-9.091999e-02,0.00e+00,
-9.089999e-02,0.00e+00,
-9.087999e-02,0.00e+00,
-9.085999e-02,0.00e+00,
-9.083999e-02,0.00e+00,
-9.081999e-02,0.00e+00,
-9.079999e-02,0.00e+00,
-9.077999e-02,0.00e+00,
-9.075999e-02,0.00e+00,
-9.073999e-02,0.00e+00,
-9.071999e-02,0.00e+00,
-9.069999e-02,0.00e+00,
-9.067999e-02,0.00e+00,
-9.065999e-02,0.00e+00,
-9.063999e-02,0.00e+00,
-9.061999e-02,0.00e+00,
-9.059999e-02,0.00e+00,
-9.057999e-02,0.00e+00,
-9.055999e-02,0.00e+00,
-9.053999e-02,0.00e+00,
-9.051999e-02,0.00e+00,
-9.049999e-02,0.00e+00,
-9.047999e-02,0.00e+00,
-9.045999e-02,0.00e+00,
-9.043999e-02,0.00e+00,
-9.041999e-02,0.00e+00,
-9.039999e-02,0.00e+00,
-9.037999e-02,0.00e+00,
-9.035999e-02,0.00e+00,
-9.033999e-02,0.00e+00,
-9.031999e-02,0.00e+00,
-9.029999e-02,0.00e+00,
-9.027999e-02,0.00e+00,
-9.025999e-02,0.00e+00,
-9.023999e-02,0.00e+00,
-9.021999e-02,0.00e+00,
-9.019999e-02,0.00e+00,
-9.017999e-02,0.00e+00,
-9.015999e-02,0.00e+00,
-9.013999e-02,0.00e+00,
-9.011999e-02,0.00e+00,
-9.009999e-02,0.00e+00,
-9.007999e-02,0.00e+00,
-9.005999e-02,0.00e+00,
-9.003999e-02,0.00e+00,
-9.001999e-02,0.00e+00,
-8.999999e-02,0.00e+00,
-8.997999e-02,0.00e+00,
-8.995999e-02,0.00e+00,
-8.993999e-02,0.00e+00,
-8.991999e-02,0.00e+00,
-8.989999e-02,0.00e+00,
-8.987999e-02,0.00e+00,
-8.985999e-02,0.00e+00,
-8.983999e-02,0.00e+00,
-8.981999e-02,0.00e+00,
-8.979999e-02,0.00e+00,
-8.977999e-02,0.00e+00,
-8.975999e-02,0.00e+00,
-8.973999e-02,0.00e+00,
-8.971999e-02,0.00e+00,
-8.969999e-02,0.00e+00,
-8.967999e-02,0.00e+00,
-8.965999e-02,0.00e+00,
-8.963999e-02,0.00e+00,
-8.961999e-02,0.00e+00,
-8.959999e-02,0.00e+00,
-8.957999e-02,0.00e+00,
-8.955999e-02,0.00e+00,
-8.953999e-02,0.00e+00,
-8.951999e-02,0.00e+00,
-8.949999e-02,0.00e+00,
-8.947999e-02,0.00e+00,
-8.945999e-02,0.00e+00,
-8.943999e-02,0.00e+00,
-8.941999e-02,0.00e+00,
-8.939999e-02,0.00e+00,
-8.937999e-02,0.00e+00,
-8.935999e-02,0.00e+00,
-8.933999e-02,0.00e+00,
-8.931999e-02,0.00e+00,
-8.929999e-02,0.00e+00,
-8.927999e-02,0.00e+00,
-8.925999e-02,0.00e+00,
-8.923999e-02,0.00e+00,
-8.921999e-02,0.00e+00,
-8.919999e-02,0.00e+00,
-8.917999e-02,0.00e+00,
-8.915999e-02,0.00e+00,
-8.913999e-02,0.00e+00,
-8.911999e-02,0.00e+00,
-8.909999e-02,0.00e+00,
-8.907999e-02,0.00e+00,
-8.905999e-02,0.00e+00,
-8.903999e-02,0.00e+00,
-8.901999e-02,0.00e+00,
-8.899999e-02,0.00e+00,
-8.897999e-02,0.00e+00,
-8.895999e-02,0.00e+00,
-8.893999e-02,0.00e+00,
-8.891999e-02,0.00e+00,
-8.889999e-02,0.00e+00,
-8.887999e-02,0.00e+00,
-8.885999e-02,0.00e+00,
-8.883999e-02,0.00e+00,
-8.881999e-02,0.00e+00,
-8.879999e-02,0.00e+00,
-8.877999e-02,0.00e+00,
-8.875999e-02,0.00e+00,
-8.873999e-02,0.00e+00,
-8.871999e-02,0.00e+00,
-8.869999e-02,0.00e+00,
-8.867999e-02,0.00e+00,
-8.865999e-02,0.00e+00,
-8.863999e-02,0.00e+00,
-8.861999e-02,0.00e+00,
-8.859999e-02,0.00e+00,
-8.857999e-02,0.00e+00,
-8.855999e-02,0.00e+00,
-8.853999e-02,0.00e+00,
-8.851999e-02,0.00e+00,
-8.849999e-02,0.00e+00,
-8.847999e-02,0.00e+00,
-8.845999e-02,0.00e+00,
-8.843999e-02,0.00e+00,
-8.841999e-02,0.00e+00,
-8.839999e-02,0.00e+00,
-8.837999e-02,0.00e+00,
-8.835999e-02,0.00e+00,
-8.833999e-02,0.00e+00,
-8.831999e-02,0.00e+00,
-8.829999e-02,4.00e-02,
-8.827999e-02,0.00e+00,
-8.825999e-02,0.00e+00,
-8.823999e-02,0.00e+00,
-8.821999e-02,0.00e+00,
-8.819999e-02,0.00e+00,
-8.817999e-02,4.00e-02,
-8.815999e-02,0.00e+00,
-8.813999e-02,0.00e+00,
-8.811999e-02,0.00e+00,
-8.809999e-02,0.00e+00,
-8.807999e-02,0.00e+00,
-8.805999e-02,0.00e+00,
-8.803999e-02,0.00e+00,
-8.801999e-02,0.00e+00,
-8.799999e-02,0.00e+00,
-8.797999e-02,0.00e+00,
-8.795999e-02,0.00e+00,
-8.793999e-02,0.00e+00,
-8.791999e-02,0.00e+00,
-8.789999e-02,0.00e+00,
-8.787999e-02,0.00e+00,
-8.785999e-02,0.00e+00,
-8.783999e-02,0.00e+00,
-8.781999e-02,0.00e+00,
-8.779999e-02,0.00e+00,
-8.777999e-02,0.00e+00,
-8.775999e-02,0.00e+00,
-8.773999e-02,0.00e+00,
-8.771999e-02,0.00e+00,
-8.769999e-02,0.00e+00,
-8.767999e-02,0.00e+00,
-8.765999e-02,0.00e+00,
-8.763999e-02,0.00e+00,
-8.761999e-02,0.00e+00,
-8.759999e-02,0.00e+00,
-8.757999e-02,0.00e+00,
-8.755999e-02,0.00e+00,
-8.753999e-02,0.00e+00,
-8.751999e-02,0.00e+00,
-8.749999e-02,0.00e+00,
-8.747999e-02,0.00e+00,
-8.745999e-02,0.00e+00,
-8.743999e-02,0.00e+00,
-8.741999e-02,0.00e+00,
-8.739999e-02,0.00e+00,
-8.737999e-02,0.00e+00,
-8.735999e-02,0.00e+00,
-8.733999e-02,0.00e+00,
-8.731999e-02,0.00e+00,
-8.729999e-02,0.00e+00,
-8.727999e-02,0.00e+00,
-8.725999e-02,0.00e+00,
-8.723999e-02,0.00e+00,
-8.721999e-02,0.00e+00,
-8.719999e-02,0.00e+00,
-8.717999e-02,0.00e+00,
-8.715999e-02,0.00e+00,
-8.713999e-02,0.00e+00,
-8.711999e-02,0.00e+00,
-8.709999e-02,0.00e+00,
-8.707999e-02,0.00e+00,
-8.705999e-02,0.00e+00,
-8.703999e-02,0.00e+00,
-8.701999e-02,0.00e+00,
-8.699999e-02,0.00e+00,
-8.697999e-02,0.00e+00,
-8.695999e-02,0.00e+00,
-8.693999e-02,0.00e+00,
-8.691999e-02,0.00e+00,
-8.689999e-02,0.00e+00,
-8.687999e-02,0.00e+00,
-8.685999e-02,0.00e+00,
-8.683999e-02,0.00e+00,
-8.681999e-02,0.00e+00,
-8.679999e-02,0.00e+00,
-8.677999e-02,0.00e+00,
-8.675999e-02,0.00e+00,
-8.673999e-02,0.00e+00,
-8.671999e-02,0.00e+00,
-8.669999e-02,0.00e+00,
-8.667999e-02,0.00e+00,
-8.665999e-02,0.00e+00,
-8.663999e-02,0.00e+00,
-8.661999e-02,0.00e+00,
-8.659999e-02,0.00e+00,
-8.657999e-02,0.00e+00,
-8.655999e-02,0.00e+00,
-8.653999e-02,0.00e+00,
-8.651999e-02,0.00e+00,
-8.649999e-02,0.00e+00,
-8.647999e-02,0.00e+00,
-8.645999e-02,0.00e+00,
-8.643999e-02,0.00e+00,
-8.641999e-02,0.00e+00,
-8.639999e-02,0.00e+00,
-8.637999e-02,0.00e+00,
-8.635999e-02,0.00e+00,
-8.633999e-02,0.00e+00,
-8.631999e-02,0.00e+00,
-8.629999e-02,0.00e+00,
-8.627999e-02,0.00e+00,
-8.625999e-02,0.00e+00,
-8.623999e-02,0.00e+00,
-8.621999e-02,0.00e+00,
-8.619999e-02,0.00e+00,
-8.617999e-02,0.00e+00,
-8.615999e-02,0.00e+00,
-8.613999e-02,0.00e+00,
-8.611999e-02,0.00e+00,
-8.609999e-02,0.00e+00,
-8.607999e-02,0.00e+00,
-8.605999e-02,0.00e+00,
-8.603999e-02,0.00e+00,
-8.601999e-02,0.00e+00,
-8.599999e-02,0.00e+00,
-8.597999e-02,0.00e+00,
-8.595999e-02,0.00e+00,
-8.593999e-02,0.00e+00,
-8.591999e-02,0.00e+00,
-8.589999e-02,0.00e+00,
-8.587999e-02,0.00e+00,
-8.585999e-02,0.00e+00,
-8.583999e-02,0.00e+00,
-8.581999e-02,0.00e+00,
-8.579999e-02,0.00e+00,
-8.577999e-02,0.00e+00,
-8.575999e-02,0.00e+00,
-8.573999e-02,0.00e+00,
-8.571999e-02,0.00e+00,
-8.569999e-02,0.00e+00,
-8.567999e-02,0.00e+00,
-8.565999e-02,0.00e+00,
-8.563999e-02,0.00e+00,
-8.561999e-02,0.00e+00,
-8.559999e-02,0.00e+00,
-8.557999e-02,0.00e+00,
-8.555999e-02,0.00e+00,
-8.553999e-02,0.00e+00,
-8.551999e-02,0.00e+00,
-8.549999e-02,0.00e+00,
-8.547999e-02,0.00e+00,
-8.545999e-02,0.00e+00,
-8.543999e-02,0.00e+00,
-8.541999e-02,0.00e+00,
-8.539999e-02,0.00e+00,
-8.537999e-02,0.00e+00,
-8.535999e-02,0.00e+00,
-8.533999e-02,0.00e+00,
-8.531999e-02,0.00e+00,
-8.529999e-02,0.00e+00,
-8.527999e-02,0.00e+00,
-8.525999e-02,0.00e+00,
-8.523999e-02,0.00e+00,
-8.521999e-02,0.00e+00,
-8.519999e-02,0.00e+00,
-8.517999e-02,4.00e-02,
-8.515999e-02,0.00e+00,
-8.513999e-02,4.00e-02,
-8.511999e-02,0.00e+00,
-8.509999e-02,0.00e+00,
-8.507999e-02,0.00e+00,
-8.505999e-02,0.00e+00,
-8.503999e-02,0.00e+00,
-8.501999e-02,0.00e+00,
-8.499999e-02,0.00e+00,
-8.497999e-02,0.00e+00,
-8.495999e-02,0.00e+00,
-8.493999e-02,0.00e+00,
-8.491999e-02,0.00e+00,
-8.489999e-02,0.00e+00,
-8.487999e-02,0.00e+00,
-8.485999e-02,0.00e+00,
-8.483999e-02,0.00e+00,
-8.481999e-02,0.00e+00,
-8.479999e-02,0.00e+00,
-8.477999e-02,0.00e+00,
-8.475999e-02,0.00e+00,
-8.473999e-02,0.00e+00,
-8.471999e-02,0.00e+00,
-8.469999e-02,0.00e+00,
-8.467999e-02,0.00e+00,
-8.465999e-02,0.00e+00,
-8.463999e-02,0.00e+00,
-8.461999e-02,0.00e+00,
-8.459999e-02,0.00e+00,
-8.457999e-02,0.00e+00,
-8.455999e-02,0.00e+00,
-8.453999e-02,0.00e+00,
-8.451999e-02,0.00e+00,
-8.449999e-02,0.00e+00,
-8.447999e-02,0.00e+00,
-8.445999e-02,0.00e+00,
-8.443999e-02,0.00e+00,
-8.441999e-02,0.00e+00,
-8.439999e-02,4.00e-02,
-8.437999e-02,0.00e+00,
-8.435999e-02,0.00e+00,
-8.433999e-02,0.00e+00,
-8.431999e-02,0.00e+00,
-8.429999e-02,0.00e+00,
-8.427999e-02,0.00e+00,
-8.425999e-02,0.00e+00,
-8.423999e-02,0.00e+00,
-8.421999e-02,0.00e+00,
-8.419999e-02,0.00e+00,
-8.417999e-02,0.00e+00,
-8.415999e-02,0.00e+00,
-8.413999e-02,0.00e+00,
-8.411999e-02,0.00e+00,
-8.409999e-02,0.00e+00,
-8.407999e-02,0.00e+00,
-8.405999e-02,0.00e+00,
-8.403999e-02,0.00e+00,
-8.401999e-02,0.00e+00,
-8.399999e-02,0.00e+00,
-8.397999e-02,0.00e+00,
